module gitlab.com/301days/glitch-aura-djinn

go 1.20

require (
	github.com/charmbracelet/lipgloss v0.7.1
	github.com/kylelemons/godebug v1.1.0
	github.com/muesli/termenv v0.15.2
	github.com/stretchr/testify v1.8.4
	golang.org/x/exp v0.0.0-20230905200255-921286631fa9
)

require (
	github.com/aymanbagabas/go-osc52/v2 v2.0.1 // indirect
	github.com/davecgh/go-spew v1.1.1 // indirect
	github.com/lucasb-eyer/go-colorful v1.2.0 // indirect
	github.com/mattn/go-isatty v0.0.18 // indirect
	github.com/mattn/go-runewidth v0.0.14 // indirect
	github.com/muesli/reflow v0.3.0 // indirect
	github.com/pmezard/go-difflib v1.0.0 // indirect
	github.com/rivo/uniseg v0.2.0 // indirect
	golang.org/x/sys v0.12.0 // indirect
	gopkg.in/yaml.v3 v3.0.1 // indirect
)
